^C:\DOCUMENTS\PROJECTS\DISCRETE_MATH\INTEGER NUMBERS\ABS_Z_N\MAIN.CPP
C:\DOCUMENTS\PROJECTS\DISCRETE_MATH\INTEGER NUMBERS\ABS_Z_N\DEBUG\VC142.PDB
C:\DOCUMENTS\PROJECTS\DISCRETE_MATH\INTEGER NUMBERS\ABS_Z_N\DEBUG\VC142.IDB
C:\DOCUMENTS\PROJECTS\DISCRETE_MATH\INTEGER NUMBERS\ABS_Z_N\DEBUG\MAIN.OBJ
